1039;982
359;362;2847;299;118;361
1743;1266
9329;9335
10;70;12;1218
162;3622;1072
1642;1644
2382;844
1237;1239
1000;1002
360;238;358;703
1901;1903
9761;8452;8451
7110;7112
1808;1806
2175;2177
8300;8406
1;2;6
1026;1024;2205
346;348;549;1093
1758;1953
100;479;102
1620;1618
36;38
1215;1180
1038;1036
358;356
1742;1744
1001;722;188
361;118
1900;1900
9760;8187
7111;7109
1809;1811
1002;971
362;364
1903;2867
1003;1001
363;117;298
1902;1890
261;259
1141;1042
1048;1347
328;326
1949;1781
1004;2322
364;366;2382
1905;1904
1439;1437;480
9728;7672;7671
7159;7156
260;262
1140;1138
1049;1047;296;1226;1880;1107
329;333;2390
1948;1782
1005;1006;1005
365;2114;363
1904;1902
1438;1454;1440;1581
1006;970;971
366;368;1094
1907;1916;1898
1007;1029
367;365
1906;765
1044;2904
324;322
1945;2640;1946
1031;1190
351;349;1729;606
1008;1730
368;371;454
1909;1306
9769;9329
7118;7085
1800;1802
1435;1433;1580
1045;1045;1082
325;327
1944;2225
1030;1031
350;352;720
1009;1011
369;367
1908;1733
9768;9488
7119;7228
1801;1799
1434;1436
1027;1035;722
347;345;655
1759;2539
3065;1065
101;99;833
1621;1623;2033;1997
37;35
1214;790;2325
1010;916;725
370;369
1818;1816
1011;1692;1013;9633
371;373
1819;1821
1012;725;1010
372;370;404;454
1449;1447
1013;1015
373;377;405
1448;1450
1014;1692;1012;527
374;372
1015;2206;1017
375;302
1016;1014
376;707
1017;1019
377;378
1054;1056
334;335
1933;745
1018;1016
378;374;405
7108;7110
1810;1808
1443;1441
1055;1053
335;337
1932;1248;1319
1019;1021
379;220
7109;7078
1811;1813
1442;1444
1518;1516
520;522
638;148
7439;7437
1024;1022
344;342
102;104
1622;1620;1618
34;36
1217;926
1020;1018
340;338
1021;1023
341;343
9017;8863
1848;2088
1211;1213;790
7334;7314
2588;2578
715;712
104;106;480;1564
1624;1622
32;34
1022;1020
342;340
9016;7042
1849;1273
1210;1206
7335;7339
2589;1636
714;713
105;103;1578;479
1625;1627
33;31
1023;1025
343;346
103;101
1623;1625
35;33
1216;1726;822
1519;1521
521;519;731
639;149
7438;7293
1025;1026
345;344
1028;520;732
348;350
1756;2538
1514;1457
634;469;470
7435;7296;7425
1029;1195
349;347;769
1757;2290
1515;1517
635;636
7434;7424;7295
1047;297
327;329
1946;1942;1947
1032;1045;1862
352;353;492
1748;1750
1046;1407
326;324
1947;2646;1946
1033;1204;2524
353;355
1749;1747
268;271
1148;1150;1272
1041;2314
321;323
1940;1480
1034;720
354;351
269;267;704
1149;771;1130;785
1040;1038
320;318
1941;715
1035;992;1037
355;357;546;674
1043;277;2802
323;325
1942;2602;1924
1036;188;1027;9313
356;354;1034
1042;1143;1756
322;320
1943;1718
1037;1039
357;703;359
1050;1052
330;328;819
1937;1717
1051;298;362
331;387
1936;129
1052;1054
332;376
1935;130
1053;1051
333;333
1934;2604
9751;8269
7146;7009;7008
219;221
1139;1151;1141;2649
1056;1058
336;334;490;547
1931;1968;1653
9750;8310;8311
7147;7058;7060
218;216;223
1138;2673;1136
1057;1055
337;339
7148;7255;7031
217;219
1137;1139
1058;1060
338;336
216;214
1136;1194
1059;1057
339;341
106;107
1626;1624
30;32
1338;2148
1213;789;1147
209;211
1060;482
300;298
1921;1924;1920
208;206
1128;1135
1061;1059
301;332;844
1920;1916;1921
1062;1061;2583;502;1652
302;119
1923;1210
1063;3065
303;305
1922;1211
1064;1062
304;300
1925;330;2427;2678
1065;1064
305;307;1227
1924;1934;1921
1066;1068
306;304;1049
1067;1066
307;1227;410
7178;8550
201;203
1121;1947;1209
1068;2197
308;1049;306
1929;2109
7179;7094
200;198
1120;2645
1069;1067
309;2823
107;105
1627;1629
31;29
1339;1341
1212;1923;1267
1070;3621
310;308;306
1913;2589
7160;7168;7167
1878;1829
1071;2198
311;194;359
1912;1912
1879;1872
1072;1074
312;310;408;406
1911;1651
1073;2414
313;315;463;2506
1910;1655
1074;2421
314;312
1917;1316
1075;1073
315;317
1916;1920;9347
1336;1332
1844;1842
7338;7344
8797;8978
2584;2585
719;717
108;64;109;65
1628;1626
2097;225
1188;1186
8280;8067
1081;2266
1593;1595
246;840;244
1166;1168
199;201
1590;1588
245;247
1165;1163
2379;2380
2094;1974
1082;2736
9371;9602;9770
198;196
1591;1593
244;242
1164;1166
2378;2376
7193;7083
2095;1973;962
1083;1120
7958;7955
979;977
1596;1944
243;245
1163;1161;2742
2092;652;1978
8285;8475
7194;7196
1084;1086
7959;7967
978;980
1597;291
242;240
1162;1164;236
2093;1975
8284;8361;8475;8265;8264
7195;7193
1085;456
1594;1592
241;243
1161;1159
2090;1527
8287;8210
7196;7206
1086;1088
1595;1595
240;266;311
1160;1162;2277
2091;3090
8286;8483
7197;7106;7201
1087;1085
1181;1740;1755;1119
7082;7070;7225;7226
8289;8184
7198;7107;7201
1088;1090
1180;1178;1961
7083;7203
8288;8438
1089;1087
1337;675
1845;2529
7339;7426;7428
8796;8797
2585;2302
718;709
109;111;84
1629;1629
271;493;397;273;770
1151;1149
8866;9243
7180;9591;8468
2082;2080
1090;1122
270;269;114
1150;1140;1141
8867;8939;8940
7181;8469
2083;2151
1091;1089
273;275
1153;424;422;412
8864;9018
7182;2552;9621
2080;2078
1092;1382;347
272;270
1152;1158;1154;1230;1156;1891
8865;8876
7183;7174;7113
2081;2082
1093;1279;1092
275;277
1155;1153
8862;8847
7184;9621
2086;2368
1094;1096
274;272
1154;1156
8863;9164
7185;2518
2087;904
1095;369
813;322;1727
1588;1586
277;1994
1157;1153;1155
2084;2871
1096;1098
812;1963;811
1589;1591
276;274
1156;1158;2841
2085;2067
3604;838
8278;8272
8560;8604
1097;1095
903;2086
1586;1584
279;281;757
1159;1153;1157
1098;2324
7945;7225
902;900
1587;1589
278;1044;276
1158;1160;1170
1099;1097
9328;9769;9336
11;9
163;165
1643;1641
2383;365
1236;1223
22;24;177
110;189
1630;2170
1263;795
220;380;218;744;258
1100;1318
7003;9004
1733;1735
221;379;2573;222;781;481;906
1101;1099
7002;9009
1732;1695
222;220;9735
1102;2324
1209;1121;1225
1731;1103;2280
223;226
1103;1105
1730;271
224;258
1104;1102;2202
7007;7011;7009
1737;1739;1732
1539;1537
619;2267
7458;7456
225;1190
1105;772
7006;8678;7011
1736;1734
1538;1540
618;620
7459;7542
226;488;228
1106;1104
7005;7182
1735;1737
227;489
1107;307
7004;9673
1734;1909
1535;1428
615;613
7454;7468;7467
228;228
1108;1110
1203;1275
1534;1533
614;616
7455;7457
229;231
1109;790
1202;1189
23;21
111;113
1631;1618
1262;1149
230;214;830
1110;1111
7031;7999;7257
1239;1241
1701;1703;1708
231;233;829
1111;1109
7030;7147;7060;7061
1238;1237
1700;1698
232;230
1112;1114
1703;1705
233;234
1113;1112
1702;1700
2388;1204
1705;1707
234;232
1114;2437
7035;7872
1648;686
168;166
410;413;415;1152
2389;2388
1704;1702
235;208
1115;1113
7034;7892
1649;1648
169;676
411;310;409;1741
18;20
412;411;1897;310;308
236;1900
1116;1118;1182
1707;1707
19;17
413;415;802
237;399
1117;456
1706;1704
2384;2386
1231;1153;2523
1709;1702
238;743;239;266
1118;1983
7039;7155;8074;9586;9269
16;18
164;160
1644;1649
239;354;241
1119;1985;1117
2385;472
1230;1232
1708;1710
1645;1643
165;167
17;15
20;22
112;66
1632;1634
1328;2830
1261;2758;2671
202;2500;204
1122;1124;1200
203;205;544
1123;1181;1091;1004
204;200;925
1124;1126
205;207;235
1125;1005
206;202
1126;1128
207;209
1127;1123
21;19
113;69;12
1633;2171
1329;2855
1260;1258
210;208
1130;1281
1938;2191
211;213;831
1131;864
1939;1482
212;210
1132;1228
213;223;215
1133;1196
214;212
1134;1148
215;258;217
1135;1137
9029;9234
1858;2553
1267;1269
2789;2787
26;28
114;112;534
1634;2173;2858
7324;7334
2598;2599
262;2083;264;428
1142;1140;1151
263;261
1143;1143;2538
264;265
1144;1146
265;426;263
1145;1144
266;268
1146;1214;789;1135
267;239;311
1147;1145
9028;8740
1859;1857
1266;739;876
2788;2856
27;25
115;116
1635;1914
7325;7331
2599;2600
24;26
116;118
1636;1638
7519;7517;7378;7394
7326;7320
1409;2162
1265;1742
2096;2098;927
1189;1191;2096;1007
8281;8067;8128;8138;8477
1592;1590
247;249
1167;1165
2099;2097
1186;1184
7085;7120
248;246
1168;1170
2374;2378
2098;2100
1187;1201
7084;7194
249;252;83
1169;2630;1159
2375;2377
25;23
117;10;11
1637;1635
7518;7377;7516
7327;7319
1408;2501
1264;2759
250;248
1170;1171;2445
1299;712
251;250
1171;1173
1298;1296
1198;1198
393;395;493
1789;1787
252;254
1172;1169
1199;1197
392;390;823;2752;2906;2838
1788;2850
253;251
1173;1175
9347;2824
188;186
254;256
1174;1172
2368;2076;2743
189;188
255;253
1175;1177;1961
2369;2087
256;257
1176;2570;1174
257;255
1177;1179
2737;2709
184;182
258;260;1933
1178;1176
2364;871
1291;1293
8177;8046
1192;1205
399;401;1754
1783;1949
2736;1761;1762
185;187;506
259;218;217;744;380
1179;2285
2365;1385
1290;1288
8176;8501
1193;60
398;2498;272;396;495
1782;1965;1784
1544;1544;1543
664;662
1322;1324
1854;1856
2785;2857
118;120;301
1638;1779
7517;7440;7519;7422
7328;7330;7322
2594;2619
1407;1411;1409
1182;1183;1195
7081;7223;7225;7070
1183;1185
7080;7230
1184;1119
7087;7070;7223;7225
1185;1202
7086;7119;7125
1323;1100
9024;8422;8469
1855;1853;1852
2784;2786
119;298;117
1639;2127
7516;7518;7440
2595;2596
1406;1404
9349;8013
2735;1032
186;184
2366;2364
1293;1295
8175;9784
1190;1996
8298;8397
1781;2075;2669
1547;1548
667;669
9348;9310
2734;2393
187;110;722;2129;1035
2367;1981
1292;1290
8174;8335
1191;2389;2524;1193
8299;8278
1780;1948
2731;2478
182;505;180;2234
2362;2362
1297;1298
1194;1127
1785;1984
1543;1541;2778
663;665
2730;2728
183;185
2363;2365
1296;1294
1195;1197;1776
1784;1915;1786
1542;1544;2783
662;660
2733;2392
180;178;2583
2360;2554
1295;1639;1297
8173;8461;8465
1196;1183;1184
1787;1785;1965
1541;1539
579;580;2128
661;1399;663;2565
2732;2477
181;183
2361;3624;965;2710
1294;2141
1197;1198
1786;2181;1788
1540;1542
578;576
660;658
12;14
160;158
1640;1642
418;416
2380;2239
1235;1235
9037;9041
1864;1863
2797;2820
120;122
1600;294
458;456
7501;7499
7310;7304
7408;7406
1411;1411
1200;1202
1738;1736
1536;1538
616;1081
7457;7343
1201;1123
1739;1739
1537;1455
617;615
7456;7468
1532;3534
612;614
7453;7461;7454
1204;1190
7931;7828
1533;1531
613;2359
7452;7468
1205;1207
7932;7757
1530;1532
508;510
610;2358
7451;7465;7459
1206;927
7933;7842
1531;1529
509;507
611;609
7450;7494;9512;7449
1207;1922
9036;7041
1865;1864
2796;2760
121;119
1601;1603;1605
459;461
7500;7502
7311;7412
7409;7411
1410;1408
1333;1988
1841;1843
1218;1217
1332;2868
1840;1838
1219;1051
9035;9100;9151;9148;9101;9054
1866;1865
2795;2797
122;124;482
1602;1600;854
7503;7505
7279;7277
1509;1511
629;471;627
7312;7308
1413;2163
1220;2511
1718;2184
8186;8197
1897;1836;410;413
7363;7358;7360
2557;2555
724;726
153;151;639
1673;1671
61;59;311
1221;2320
1719;1720
8187;8416;8262
9067;8918;8937
1896;1896
7362;7368
2556;2558
725;9313;723;971;2496
152;154
1672;1674
60;1192;2097
1222;1224;2304;2520
8184;8260;8263
9064;8848;8876
1895;2738
7361;7498
7479;8428;8215;9536
2555;2448
726;728
151;149
1671;1669
429;427;263
63;586;109;65;86
1223;1964;811
8185;8192
1894;1892
7360;7581;9268
7478;7584
2554;2556
727;725
9339;9504;9694;9491
150;152
1670;1672
428;430;601
62;61;841
1224;1236
8182;8415
9062;8760;8764
1893;2305
2553;1861
720;2131;719
7918;7924
157;159
1677;1675
65;67;146
1225;2601
8183;8189;8344;8288
9063;9055
1892;1153
2552;2550;2549
721;698
7919;7916;7904
156;153
1676;1678
64;62;553;654
1226;299
8180;9425
9060;8874
1891;1893
2551;2518;7183;7163;7185
722;724;914;2374
155;550
1675;1673;1669
67;12;69
1227;1741;410
8181;8202
9519;2823
9061;8970;8901
1890;1178
2550;2548;7163
723;188;2129;1000;1027
154;157
1674;1676;9519
66;64;86
1228;1385
1710;1712
1229;1131
1711;1709
9034;9100;9151;9101;9152
1867;1868;1400
2794;2794
123;121
1603;1952
7502;7462
7278;7280
1508;1506
628;630;2360
7313;7333
1412;2189
15;13
1647;1646
167;175;169
2387;2385
1232;1233
14;16
1646;1645
166;164
2386;464
1233;1235
13;68;114;115
161;163
1641;944
419;421
2381;2129
1234;1231
9033;9031;9528;9030
1860;1859
1279;769
2793;884
124;126
1604;1602
7505;7506
7314;7310
1415;2190
1240;2803;1238;2804
1778;1780
7307;7311
1424;1426
137;135
1617;1619;1630;2893;1621
7534;7612
1241;1243;1278
1779;2591
7306;7316
1425;1423
136;138
1616;1614
7535;7421
7305;8219
1426;1426
135;133
1615;1617;2297
7536;7540
1242;1240
7304;7728
1427;1428
134;136
1614;1612
7537;7543
1243;1245
999;997
7303;7309
1420;1422
133;131
1613;1615;1617
7530;7526
1244;1242
998;999
7302;7300
1421;2853
132;134
1612;1610
7531;7529
1245;1247
1578;1577
658;656
7301;7420
7419;7539
1422;1424
9398;9379
131;1936
1611;1613
449;447
7532;7524
7208;7094
1246;1244
1579;1434
659;661
7300;7621
7418;7416
1423;1421
9399;8208;9325
130;132
1610;1608;1606
448;450;564
7533;7527
7209;7106;7107
1247;1249;2241
1248;1246
1770;1772
995;993
1576;1576
656;346
7417;7419
1249;1251
1771;1769
994;961
1577;104
657;659
7416;7556
9032;9030;9086;9152
1861;1045;1826;2251
1278;1276
2792;2793
125;123
1605;1607;1563
7504;7500
7315;7305
1414;1416
2202;2204;2843
1391;1389
1250;2154;2241
1768;1770
2203;2329
1390;1392
1251;1253
1769;1767
2309;2317
8116;8222
2200;695
1393;1391
3481;2481
1568;1570
648;649
1252;1932;1250
2308;2309;2702
2201;2203
1392;1394
1569;2648
649;647
1253;1255
2206;2217
1395;1393
1254;1252
2207;2592
1394;1396
1255;1257
2204;798
1397;1395
1256;1254
2205;2206
1396;2326
1257;1259
2303;1885
1399;1401
1258;1256
1760;1762;2735
1562;1562
642;641
2302;2571
1398;1397
1259;1906
1761;1954
1563;1611;1609
643;642
9549;9563
9031;9032;9151
1862;1860
2791;2627
126;128
1606;2130;1602
988;990
7316;7318
1417;1415
1321;1918
9026;8788
1857;1855
1268;1211
2786;2788
29;27
7514;7387
2597;2598
1404;1402
1320;1322
9027;9211
1856;1858
1269;1271
28;30
2787;2785
7515;7386
2596;2597
1405;1046
9548;9727
9030;9152;9032;9151;9033
1863;2263
2790;2791
127;125
1607;1563
7506;7504
989;987
7317;7315
1416;1418
9542;9032
1869;1383
1270;1268
983;981;1040
1506;1504
626;628;471
7405;7617
1868;1898;1867
1271;1262
982;984
1507;1509
627;625
7404;7410
7274;7266
2798;2796
457;459
981;979
1504;1466;1502
624;626;1917
7407;7409
1272;1270
7275;7271
2799;2403
456;404;371;370
980;982
1505;1507
625;623
7406;7407
1273;3481
987;2470
1502;1466;1500
622;624
7319;7325;7320
1418;2852
129;127
1609;1611
451;449
7508;7510;7391
7272;7276;7444
1274;2155
986;988
1503;1505
623;621
7318;7332
7400;7402
1419;1417
128;1935
1608;1606
450;452
7509;7392;7511
7273;7279
1275;1277
985;983
1500;1498
620;622
7403;7397
1276;1280;1274
984;2469
1501;1503
621;619;835
1277;1242
1389;1377
1280;2156
1388;1390
1281;1896
1282;1134
8168;8218;8392
1283;1285
8169;8201;8218
1284;2213
1285;1287
2319;1221
1286;1284
2318;2319
1287;1289
2317;2475
1288;1286
8162;8163;8049
1381;1380
2316;2445
1289;1291;2161
8163;8316
1380;1370
1656;1657;9430
176;61;841
9245;8920;8907;9263
2499;203
2396;2394
1300;711
1959;3625
7347;7587
2573;2575
704;533;358;359
1657;1659
177;179
9244;9264;9263
2498;2496
2397;2399
1301;1303
1958;1959
7344;7458
2668;2666
2570;2447
707;403;1987;402
1654;1979
174;168
2394;2733;2392
1302;1291;2288
7345;7341
2669;2668
2571;2312
706;494;7052;495;397;914;9308;970
1655;1931
175;543
2395;2397
1303;1305
7342;7346
2576;2577
701;699
1652;911;966;2710;687;1351
172;542
2392;2034
1304;1302
7343;7337
2577;2588
700;530
1653;496;503
173;171
2393;2397;2395;9495
1305;1307;1908;1306
7340;7336
8789;9027
2574;222
703;534;268
1650;1647;2888
170;172
2390;2525
1306;1304
7341;7335
8788;8786
2575;2576
702;703
1651;1637
171;170
2391;2734;2393
1307;1309
1308;1306
9102;8850
1951;1877
1309;1311
9103;9052
1950;2467
2283;478
1310;1308
2282;617
1311;1313
2281;2099
1312;1310
2280;1062;1063;1261
1313;1315
2287;2286
1314;1312
2286;1876
1315;1315
2285;2285;1180
1316;469
9118;9117
1969;1351
2284;477
1317;1320
9119;9077;7024
1968;2137
1318;1247
9116;9120;9114
1967;1980
1319;1317
9117;9115
1966;1783;1786
1324;697
1852;1854
2783;2777
7511;7509;7619;7296;9634
2592;2606
1401;1403
1325;1323
1853;1755
2782;2782
7510;7508;7618;7564
2593;2605
1400;1867;1345
1326;2854
9021;8870;8869
1850;1848
2781;2779
7513;7352
2590;1911
1403;1405
1327;763
9020;9263;8859;8869
1851;1850
2780;2782
7512;7570
2591;1912
1402;664
1330;1330
1842;1840
1331;1335
1843;2901
1334;1336
1846;2902
1335;1333
9018;8486;8409
1847;1849
1340;2150
1341;1048
1342;1340
1343;1209;1942;2603
1344;1342
1345;1400;1343
2534;1457
8741;9029
2897;2898
7388;7515
1698;1693
2358;612
1346;1344
2535;2408
8740;8741
2896;2894
7389;7390
1699;1701
2359;611
1347;1349
1696;2870
40;42
2356;2074
1348;1938
1697;1699
41;39
2357;2357
1349;1349
1350;1352
1351;1654
2634;2208
1499;1501
779;780
8733;8735
7398;7395
1688;1689;2823;7815
7589;7398
9239;9241
2465;1827
2348;2491
1352;1354
2635;2637
1498;1465
778;776
8732;8730
7399;7590
1689;1687;309
7588;7348;7350
9238;8830
2464;2547
2349;2350
1353;1284
1354;2214
1355;1353
1356;1358
1357;2214
2715;2713
1682;1684
50;51
7583;7477;9514
2526;2805
1493;2544
773;775
8739;9137
7392;7568;7509;7565;7391
2342;2340;7879
8155;8151;9781
1358;1360
2714;2716
1683;1681
51;49
7582;7588;9271;9268
2527;2545
1492;1494
772;332;2383;302
8738;8780
7393;7518
2343;2342
8154;8136
1359;1357
2295;2296
1360;1362
8086;8363;8050
9126;9221
1979;961;1656
2294;2294
1361;1359
8087;8050
9127;8941
1978;1978
2297;2298
1362;1364
8084;8346
2296;2165
1363;1361
2291;834
1364;1366
2290;605;1142
1365;1363
8083;8045
2293;2294
1366;1368
8080;8471;8476
2292;2293
1367;1365
8081;7095
1368;1368
1971;2138
1369;1378
1970;1972
1370;1374
9055;8773
1882;2278;2742
2542;98
757;759
2883;1615
7376;7374
146;148
1666;1664
78;76
1371;1369
9054;8835;9102;8834
1883;1885;2194
2543;1492
756;279
8750;8755
2882;2880
7377;7370;7518
147;67;925;176;66;3147
1667;1666
79;551
1372;1476
9057;9043
1880;305
8753;8880;8995
2540;2675
755;754
2881;2883
7374;7380;7423
144;145
1664;1662
1373;1475
9056;9064
1881;1883
2541;2430
754;752
8752;8747
2880;2878
7375;9754
145;143
1665;1387
1374;1376
9051;8375;8342
1886;1884;2194
8755;8748
2546;2528
753;756
928;930
2887;2299
142;144
1662;1660
1375;1371
9528;9542
9050;8198
1887;1889
8754;8749
2547;2549
752;639
929;729
2886;2146
7373;7375;7353
143;141
1663;1665;2593
1376;1388
1884;1882;2330
8757;9234;9213;9212
2544;1491
751;753
7969;7968
2885;2884
7370;7422;7377
7468;7453;7467;7369;7403
140;142
1660;1658
438;440
1377;1375
9052;9100;9101;8850;8834
1885;1887
8756;9212;9330;9233
2545;2037
750;750
7968;7970
2884;2882
7371;7378;7423
7469;7595
141;139
1661;1663
439;565;437
1378;1379
1379;1093
1777;1777
7201;1;7198;7205;7202;7200
138;140
1618;1616;1614;2885
440;442
992;994;1656
1571;1569
651;2093
7308;8220
7410;7408
2314;1043
1382;1381
2315;2316
8160;8429
1383;1871
2312;2315
1384;1229
2313;1870
1385;738;941
2310;1223
1386;1384;2366
2311;1884;2303
1387;1668;2208
1776;1199
7200;7202;7060
9390;9389;9496
139;137
1619;1621
441;439
993;991;1036
1570;1572
650;82;581
7309;7313
7411;7405
1774;1778;1955
991;989
1572;1574
652;2223
7413;7312
1428;1430
1775;1773
990;2226;992
1573;2837;1571
653;382
7412;7413
1429;906;480;1565
1805;1807
1430;1432
1804;2075
1431;1429
1807;1809
1432;1434;1566;1579
1806;1804
1433;1431
1803;1805
1436;1438
1802;1802
1437;1435
1813;1815
1440;1442
1812;1810
1441;1439
1817;1819
1444;1446
1816;1814
1445;1443
1815;1817
1446;1448
1814;1812
1447;1445
1450;1452
1451;1449
1452;1454;1547;2769
1453;1451
3913;3915
1829;1831
1454;2103;1456;1536
3912;3910
1828;2466
1455;1453;1439
1456;2533;1458;1513
1457;2134;1455
1825;2251;2869;1862
1458;1460;1466
1824;1822
1459;1457;2534
8885;9257;9258
3909;3911
1837;1839
1460;1462
780;778
8884;8878
3908;3906
1836;409;410
1461;1459
781;220
1835;1835
1462;1464
782;784
1834;1832
1463;1461
783;782
1833;2909;1835
1464;1466;1497
784;1148;771
1832;1830
1465;1463
785;783
1831;1833
1466;1468;1478
786;788
1830;1828;1879
1467;1465;1459
787;1148;785
1468;1470
788;1147;1214;790
1469;1467
789;787
1470;1472
790;792
1471;1469
791;1213;789
1472;1474
792;2437;794
1473;1471
793;1108;791;2325
1474;1372
794;1264
1475;1473;1467
795;793
1476;1478
796;798
1477;1373
797;1115;795
1478;1481;9304;1479
798;2322;800
1479;1477;1467;1478;1497;9408
799;797;1986
148;150;390;746
1668;1670;1674
430;432
76;75;347;606;81
2702;2704
7590;7498;7361
2513;2514
1480;1479
760;758;2416
2703;2692
7591;7550;7595;7592
2512;2475
1481;1939
761;285
2700;2663
7592;7601;7553
2609;2610
2511;2512
1482;1484
762;760
2701;2662
2608;2609
2510;1220
1483;1940
763;1325
9224;9228
2478;2480
2706;2708
2517;2310;1894
1484;1486
764;1260;1723
8722;8618;9663;9771;8577;9662
2707;2705
7595;7600;7596
9225;9114
2479;2732
2516;2517
1485;1483
765;767
2704;2706
7596;7470;7592
2515;2516
1486;1488
766;764
8438;8351
2705;2514
2514;2515
1487;1485
767;348;1093
8439;8289
8721;9663;9771;9662;7028;8620;8618
2603;1345
1488;1490
768;766
8436;8451
9228;9226
2474;666
8667;8654
2602;1945
1489;1487
769;768
8437;8057
9229;9225
2475;2476
8666;8592;8591
149;147;200;925
1669;1667;9431
431;429
77;3604;79
2716;2718
1681;1679
53;74
2525;1204;1193
1490;2543
770;773
7391;7508;7392;7567;7554
2717;2715
1680;1682
52;54
7581;7582;7583;7584
2524;1925
1491;1489
771;786
7390;7386;7388
2712;2714
1685;1683
57;55
7584;7582;7477
9234;8852;8757
2468;1951
2639;1225
2521;1223
1494;1496
774;1041;274
7395;7620
2713;2711
1684;1686
56;58
7585;9420
9235;9108;8734
2469;986
2638;2636
2520;2522
1495;1493
775;777
7394;7423
2710;2712;9708;8769
1687;1685
55;53
7586;9419
2523;2521
1496;1496
776;774
7397;7396
2711;1960
1686;1688
54;56
7587;7581;9271
2522;2213;1230
1497;1499;1503;1501
777;779
7396;7399
1752;2703
1510;1508
528;528
630;630
7431;7427
1753;1751
1511;2807
529;71
7430;7436;7432
1750;1752
1512;1510
632;350
7433;7431
1751;1749
1513;1515
633;635
7432;7433;7440
1754;1983;1852
1516;1514
636;637
7437;7431
1755;400;401
1517;1519
637;708
7436;7438
1722;1906
7926;7917
1520;1518
518;1028
600;598
7427;7429
1723;1721
7927;7690;7846;7845;7921
1521;1523
519;517
601;602;2622
7426;7428;7430
1720;1722
7924;7925;7926
1522;1520
602;600;429
7425;7435;7441
1721;1937
7925;7923;7916
1523;1525
603;703
7424;7522;7441;7434
1726;706
7922;7928;7682
1524;1522
604;123
7423;7545;7371;7516;7625;7623;7579;7466
1727;815
7923;7918
1525;2091
605;2193
7422;7373;7379;7353;7548;7370;7381;7393
1724;2502;1901
7920;7904
1526;1524
606;608
7421;7302
1725;1984
7921;7907;7927
1527;1526
607;550;632
7420;7534;7612
1528;1530
510;512
608;610
1529;2899
511;509
609;607
1548;1550
570;568
668;2474
1549;1455
571;573
669;671
1792;1794
1550;1552
568;566;748
670;668
1793;1791
1551;1549
569;571
671;673
1790;1792
1552;1554
672;670
1791;2851
1553;1551
673;1962
1796;1798
1554;1556
674;356
288;286
1797;1795
1555;1553
675;2149
1794;2142;1796
1556;1558
676;678
1795;1793
1557;1555
677;705
1558;1560
560;558
678;2128
1559;1557
561;587;563
679;677
1762;1764
1560;1562
640;639
1763;1761;2735
1561;1559
641;640
1766;1768
1564;1428;1438;1454
644;646
1767;1765
1565;105
645;590
1764;1766
1566;2647
646;648
1765;1763
1567;1433
647;645
1772;1774
997;957;956
1574;1576
654;553;585
7415;7615
1773;1771
996;998
1575;1573
655;657
7414;7616
1713;1711
9331;8757
158;156
1678;1680
420;416;418
7942;7878
905;530
1580;1433
904;902
1581;1583
819;817
907;909
1582;1439
7941;7808
818;329
906;1427;480;1535
1583;1585
7946;7249
901;903
1584;1582
900;868;871
1585;1587
1712;1713
9330;9664
159;161
1679;1677
421;423;1152
7956;7960
977;975
1598;291;676
9378;9399;9379;9661
191;799
7957;2697
976;978
1599;1601
9379;7965;9381;9378;9399
190;268;535
7348;7350
8781;8739
2664;2701
1658;960;2225
178;23
2497;2497
7349;7347;7587;7350;8786;7726;9271
8780;8926
2665;2667
1659;1661
179;181
2496;822;9512
1690;527;1692
46;48
1691;148
47;45
1692;2135;2823;1697;2757;2243;9632
44;46
1693;1013;1690;1012;2444
45;43
2538;1758
747;567
7384;7356;7571
1694;2487
42;44
2539;1143;1757
746;154;751;2752;845
7385;7514;7389
1695;1738
43;41
1714;2900
1715;2134
1716;2244
1717;1717
8189;8466;9761
9069;9085
1898;1868;2822
1728;818
1729;838
1740;459
1741;313
1744;1746
1745;1743
1746;1748
1747;1745
287;857;289;856
1798;1800
286;762;284
1799;1797
1820;1818;1866
1821;1823
8894;8923;8908
3918;3916
1822;1820
1823;1825
1826;1824
1827;1829
3906;3904
1838;1991
3907;3909
1839;1841
7168;7164;7159
1870;2468
1871;1878
1872;2313
1919;2094
1876;1950
1877;1180;2285
1888;1886
1889;2215
317;319
1914;2000
316;314
1915;1777
1918;625
192;820;237
193;195
194;3650;650
195;197
9101;9054;9034;9052;9095
1952;1605
9618;7059;7060
9100;9091;9092;9034;9035;9052
1953;1760
9107;9087
1954;1759
9106;9136
1955;1803
9736;8911
2399;2401
1956;1957
2398;2396;2394
1957;1958
196;194;533;603
9609;9606;9718
9111;8936
1960;2367;1653
9608;9605
9110;8814
1961;1724
9113;8945
1962;672
9112;9129
1963;1222
9115;9116
1964;813
2288;2289
9114;8985;8799
1965;1966
2289;1296
197;199;1691
1972;2094
1973;1971
1974;2092
2298;2886
1975;2095
2299;2300
8089;8524
9129;9084
1976;2218
9128;8981
1977;548
8091;8183
9131;9261
1980;1653
8090;8471
9130;9113
1981;1982
8093;8230
9133;8927
1982;1967
8092;8093
9132;8924
1983;1122
8095;8400
9135;9092;8839;8737
1984;1783
8094;8140
9134;9091;8838;8736
1985;403;1993
8097;8040
9137;9107
1986;2672
8096;8100
9136;8738
1987;1118;1182
8099;8101
9139;9072
1988;2147
8098;7864
9138;9396;9141
1989;1334
1990;1837
1991;2182
9141;9145
1992;1887
1993;435
9147;8987;9156
1994;279
9146;8987;9157
1995;278
9145;9069
1996;1187;1188
1997;1999
1998;1622
1999;2001;1913
2;71;4
2176;2174
3090;2090
2109;2158
2901;1845
2000;1998
2108;1919
2900;1528
2001;2003
2903;770
2002;2000
2902;1844
2003;2005
2905;1753
2004;2002
2904;2903
2005;2007
2907;388
2006;2004
2906;2913
2007;2009
875;738;737;1265
2101;2107
8312;8322
2909;2911
2008;2006
874;872;940
2100;2101
8313;8314;7141
2908;2908
2009;2011
2010;2008
8207;8258
2011;2013
8206;8411;8410
2179;2117
2012;2010
8205;8442
2178;2176
2013;2015
8204;8212;8206;8207
2014;2012;2412
8203;8037;8206;8211
2015;2258
8202;8405
2016;2014
8201;9051
2017;2260
8518;8506
7;5
2173;2175
2018;2259
8517;8527
2172;1633
8307;8324
6;8;7655
2019;2261
8516;8246;8357
2020;2022
8505;8268;8227
2021;1881
8504;8341
2022;2024
8507;8341;8320;8268
2023;2019
8506;8228
2024;2026
8219;7307
8501;8034
2025;2023
8218;8129
8500;8175
2026;2028
8503;8268
2027;2025
8502;8052;7479;8472
2820;2799
2028;2030;2756
8215;8029
2821;2798
2029;2027
8214;8396
2838;696
2030;2245
8223;8221
2839;2278;2277
2031;2029;2607
8222;8224
2032;2032;2246
8221;8116
2033;2035;2391
8220;7306
2034;1622
8227;8508
2035;2527
8226;8370
2036;2034
8225;8135
2037;2039
8224;9024
2830;1330
2038;2546
2831;1329
2039;2041
2848;2844;2846
2040;2038
8235;8676
2849;298
2041;2043
8234;8274
2042;2040
8237;8106
2043;2045
8236;8106;8319;8403
2044;2042
8231;8388
2045;2047
8230;8497
2046;2044
8233;8493
2047;2049
8232;8484
2840;2741
2048;2046
2841;2740
2049;2051
2050;2048
2051;2051
8556;8610
2052;2232
8555;7744
2053;2133
8554;7745;7749
2054;2056
2055;2233
2056;2104
8551;7179
2057;2055
8550;8578;8577
2058;2060
2059;2105
2060;2062;9665
3621;2414
8255;8296
2061;2059
8254;8316
2062;2064
8257;8206;8412
2063;2061
3622;1071
8256;8121
2064;2628
3625;2367
8251;8315
2065;2063
3624;972
8250;8269
2066;2084
8253;8254
2067;2140
8252;8360
2068;2070
3629;3629
2069;2872
2070;2072
8263;8189
2071;2069
8262;8183
2072;2354
8261;8183;8417
8579;8551
2073;2071
8260;8470
8578;8580;8577;9771
2074;2073
2075;1775
2076;2076
8265;8516;8246;8475
2077;2079
8264;8265;8357;8515;8344;8217;8356
2078;2247
2079;2081
3616;510
2088;2532
8275;8276;8308
2089;1847
8274;8464;9753
2102;2193
8311;9751;8450
2103;1456;1714
8310;8122;8450
870;868;2363;899
2104;2058
8317;8479;8373;8377
871;873
2105;2057
8316;8252
872;870
2106;836;721;352
8315;8162;8253
873;875;874;2486
2107;1141;2102;3102
8314;8329
2110;2112
8655;8414
864;862
2111;951;2110
8654;8622;8634;8621;8666
865;867
7999;7210;8309;7211
866;864
2112;2113
7998;2342
867;869;899
2113;905
8656;8106
860;852
2114;298
8329;8410;8411
861;863
2115;2179
8328;9662
2116;931
8653;8666;8634
862;858
863;2418;491;865
2117;2119
2118;2180
8325;8323
7993;7995
2119;2121
8324;8106
7992;7989
2120;2118
2121;2123
8336;8446
2629;2065
2122;2120
8335;8115
2628;2139
2123;2216
8334;8173
7981;7801
858;288;856
2124;2124
7980;7976
859;853
2125;730
8332;8677;8320
7983;2697
2126;729;2375
2127;1297
8330;8340
7982;2613
2623;2625
8456;8362
7884;7886
854;860;846
2128;682
2622;2624
8457;8432
7885;7883
855;857;288
2129;188;2129
7894;7885
2659;2661
844;398;1106
2448;629
2130;1604
7895;7890
2658;2656
845;847
2131;2106
846;913;639;2496
2132;2052
847;849
2133;1797
840;85;842;61
2134;1455
841;839;243
2135;953
842;535;146;190
2136;1693
843;2276
2137;1970
2651;2653
8442;8194
2440;2438
2138;1969
2650;1140
8443;8239
2441;2439
2139;2066
2438;279
2140;2629
2439;2422
2141;1292;1301
8352;8439
2142;2132
8351;8474
2143;2145
8350;8297
8628;8621;8622;8625
2144;1650
8357;8302;8356;8336
2145;2887;889
8356;8336;8302
2146;2144
8355;8461
2147;1337
2430;2428
2148;1989
3147;638
8623;8624;8625;8626
2431;2433
2149;1339
8622;8654;8628;8653
2428;2390;2860
2150;2183
8365;8053
2429;2540
2151;2255
8364;8087;8081
2152;265
2153;2108
8366;8264
2154;1203;1280
8361;8455
8619;8623;391;8691;8722;9356
2155;1249
8360;8059
8618;391;9662;9531
2156;2210
8363;8102;8039
2157;1203;1274
8362;8265
2420;759
2158;2370
2421;2472
2159;2153
2418;2419
2160;725
2419;2519
2161;1301
2162;1412
2163;1410
8604;8581
2164;2372;2292
8603;8559
2165;2371
2166;2168
2167;2270
8600;8592;9479
2410;693
2168;2231
2411;1698
2169;2167
2170;1632
8305;8321;8075;8324
4;90006;6
5;71;3
2171;1631
2174;2172
8301;8718
2177;2178
8302;8401
3;1
2180;2116
8393;8169
2181;1990
8392;8394
2182;1787
2183;1338
8390;8469;7180;8424;8245;8345;8426;8044;8056;7181
2184;2186
8397;8072
2185;1596
3102;2102
8396;9763
2689;2687
2186;2188
8395;8213
2688;2690
2187;2185
8394;8393
2687;2685
2188;2188
2686;2688
2189;1414
2190;1413
2191;2192
2192;1346
2193;2281
2194;2196
2195;2021
2196;2201
2197;1070
2198;1069
2199;2200
2301;2301
2208;2209
2300;1616
2209;2209;2632
2210;2212
8003;7829
2211;2157
8002;7817
2212;2523;1283;1350
2213;2211
2214;1356
8007;8013;8012
2215;2195;1888
8006;8017;8016
2339;2341;7879
2216;2122;520
2338;2336
2217;2905;1753
2337;2339
8102;8103
2218;2220
2336;2334
8103;8107
2219;1977
2220;2222
2221;2219
2222;651
2223;2221
2224;1657
2225;959
2226;2228
2227;991
2228;467
2229;2227
2230;1943
8027;7743
2231;2269
2232;2054
2233;2053
2234;2235
8023;8100
2235;2236
2236;2237
2237;3616
2239;2377
2240;2381
8075;8317
2241;2859
8074;9269;7040
2242;1249;1932
8077;8350;8297
2243;2257
8076;8257
2244;1693
2245;2032;7739
2246;2031
8073;8398
2247;2152
8072;8275
2248;934
2249;684
2250;2674
8043;9591;8390
2251;2253
8042;8537
2252;1862;1826
8041;8534
2253;2465
8040;8364
2254;2252
8047;8477;8450
2255;2077
8046;8084
2256;831
8045;8175
2257;1716
8044;8043
2258;2017
2259;2016
2329;2328
2260;2020
2328;2311
2261;2018
2262;315;314
8017;8007
2263;2264
8016;8007
2264;2265
8011;7716
2265;1817
8010;7719
2266;618
8013;8019;7732;7782;7783;8006
2267;2282
8012;9348;8006;9268
2321;2307
2268;2169
2320;2321
8133;8134;8368
2269;2268
2270;2272
2271;2373
2272;2274
2273;2271
2274;843
2275;2273
2276;2276
2277;1881
8068;8281
2278;1162;1161
8067;8478;8281
2279;604;1104
8066;8477;8478
2304;2305;2508
2305;2306
2306;2308
8119;8346
2307;2310
8118;8137
2322;2323;1101
8131;8136
2323;1731
8130;8270
2324;191;453
8137;8031
2325;1212
8136;8226
2326;2586
8135;8131;8153
2327;2327
8134;8154
2330;1992
8105;9426
2331;2333;2339
8104;8236;8235;8320;8321;8655;8676
2332;7909;2755
8107;8108
2333;2335
8106;8447;8344;9209
2334;2332
8101;8097
2335;2337
8100;8098
2340;2338;2332
8157;8421;8420
2341;2411;7998
8156;9781
2344;2379
8153;8133
2345;2346
8152;8156
2346;2348
8151;8149
2347;1870
8150;8152
2350;2351
2351;2351
2352;2493
2353;1730
2354;2355
2355;2357
2370;2164
2371;2159;1980
2372;2166
2373;2165
2376;728
2377;2240;2160
2611;2612
2509;2510
8402;8302
2400;2398
2610;2611
2508;2509
8403;8526
2401;2425
2613;2614
8400;8214
8718;9762
2402;2400
8677;8237;8106;8236
2612;2621
8401;8402
8719;8300
2403;2405
8676;8330
2615;2616
8406;8240
2404;2426
2614;2695;2697
8407;8523
2405;2407
2617;2618
2406;2801;2404
2616;2617
8405;8301;8406
2407;2409;2794
2619;1662
2501;1406
8712;8708
2408;2406
2618;2032;7738
2500;541
8713;9682;9684
2409;2464
2412;2760
2413;2013
2414;155
2415;2440
2416;2569
8609;8555
2417;863
8608;8560
2422;2582
2423;2561
2424;2436
8369;8225
2425;2403
8368;8284;8285;8265
8610;8585
2426;2402
2427;2754
2432;2676
8359;8251
8621;8653;8628;8627
2433;2435
8620;2914;8623;8691;391
2434;2432
8627;8625
2435;2526
8626;8628
2436;2434
8625;8628;8624
2437;796
8624;8620;8619;8623
2653;2655
8440;8491
2442;2123
2652;2768
8441;8536
2443;1692
2655;2657
8446;8104;8444
7898;9267
848;846
2444;527
2654;2652
8447;8338
7899;9692
849;851
2445;2446
2657;2659
8444;8463;8530;8535
2446;2447
2656;2654
8445;8447;8344
2447;742
2637;2639
8730;8822
59;57
2466;2254
2636;2634
8731;8733
58;743
2467;2345;1869
2607;2608;2331
8432;8434
2470;985
2606;2594
8433;8458
2471;1075
2605;2207
8430;8498
2472;2753
2604;1942
8431;8425
2473;667
2476;2731
2708;1895
2601;1343
2519;2420
8434;8448
2477;2537
2709;2707
2600;2225
2518;7068;2567
8435;8433
804;806
2480;2480
805;803
2481;1851
800;401
2484;747
801;799
2485;442
7979;7645
802;804
918;1010
2486;875
7978;7977
803;414
919;921
2487;2489
7977;7981
916;725
2488;1696
7976;7979
917;919
2489;2751
8786;8784
2663;2665
2490;2488
8787;8789
2662;2660
2491;2492
8784;8792
2661;2700
2579;2579
2492;2349
8785;8787
2660;2658
2578;2579
2493;2494
8782;8776
2667;1778
708;634
9248;8867;9090
2494;2495
8783;9219
2666;2664
709;709
9249;8871
2495;2347
2502;2504
8409;9181;9017
8711;8715;8716
2503;1890
8408;8410;8411
8710;7176;7177
2504;2497
2505;2503
8716;8706
2506;804
8715;8710
2507;314
8714;8709;9676
2630;1167
2528;2036
8737;9135;8845
2631;2562
2529;2531
8736;8844;9134
2893;2895
2530;1846
2531;2089
8744;9014;8750
2892;1618
2532;2530
8747;8754;9014
2891;2875
2890;2874
2533;1458
2536;2535
749;750
8743;8791
2895;2897
2537;2513;2318
748;2485
8742;9124;9123
2894;2892
2548;2536
7965;7966
926;148;201
2889;686
7464;7468
927;1033
2888;893
7465;7622;7422;7624
2549;2551
2558;2560
2559;2557
2678;2680
2560;2631
8776;8776
2679;2677
2561;2559
8775;8771
2562;2564
8774;9056
2563;2423
8773;9057
2564;662
8772;8779
2565;2563
8771;8767
2566;2552;7184
8469;8345;8429;8509;7248;7180
8770;8772
2567;2568;8631;8632
8468;9591;8498;7247;7180;8223
2670;2441
2568;2566
8467;8187
2671;2202
2569;2417
8466;8057
8793;8785
2580;2581
8792;8790
2581;2574
8791;8793
2582;179;554
8790;8742
2583;2415
8795;9012
2586;2327
8794;9011
2587;1398
7886;7895
2621;2613
2624;2626
8451;9760;8057
7883;7896
2625;602
8450;8311;8047
7882;7173
7881;7903
2626;2642
2627;2792
8452;8437
7880;2340;2341
2719;2719
2632;2633
8735;9236
2718;2719
2633;2635
8734;8732
8765;8761;9064
2640;2638
8764;8768
2641;2641
8767;8848
2642;2641
8766;8770
2643;2644
8761;9064
2644;2623
8479;8305
8760;8763;8764
2645;1121
8478;8047;8067;8068;8066
8763;8761
2646;1956
2647;1568
2648;1567
8475;8352;8145
2649;2767
8474;8284;8264
2672;1062
8465;8355
2673;1147
8464;8445
2674;749
8463;8273
2675;2431
8462;8174
8779;8854
2676;2541
8461;8347;8348
8778;8779
2677;2390
8460;8473
2680;2682
2681;2679
2682;2684
2683;2681
2684;2686
2685;2683
2690;2691
8483;8195
2691;2691
8482;8231
2692;2693;1016
8481;8287
2693;1025
8480;8307
2694;2615
8487;8368;8344
2695;2697
8486;9181
8878;8887
2696;2694
8879;8752
2697;2699
8484;8216
8876;9087;8871
2698;2696;2694
8877;8883;9314
2699;2698;7654
2720;2720
2721;2723
2722;2720
2723;2725
2724;2722
2725;2727
2726;2724
2727;2729
2728;2726
2729;909
2738;2740
2739;2737
2740;2839
2741;2842;2739
2742;2840
2743;2745
2744;2369
2745;2747
2746;2744
2747;2749;2790
2748;2746
2749;2749
2750;2490
2751;2301
2752;451
2753;2471
2754;2429
2755;2029
2756;2331
2757;2343;9632
2758;1263
2759;1062;554
2812;2810
2760;2762
2813;2815
2761;2795;2413
2810;2808
2762;2764
2811;2813
2763;2761
2816;2814
2764;2766
2817;2819;9388;9378
2765;2763
2814;2812
8908;9244
2766;2765;2766
2815;2817
2767;2651
8906;8894
2768;2650
8907;8850;8834;9244;8893;9245
2769;2770
2806;2424
2770;2772
2807;2809
2771;1455
2804;1239
2772;2774
2805;2203
2773;2771
2802;639
2774;2776
2803;2803
2775;2773
2800;2821
2776;1544
2801;2800
2777;2775
2778;2780
2779;1542
280;1995;755
2808;1512
2809;2811
281;283
2818;2816;9377
2819;2818
282;280;2670
2822;2824
2823;9545;1907;9557;9352;7710
2824;9524;1689;1693;9520;1688
283;2861;285
2832;2834
2833;696
2834;2836
2835;2833
2836;1572
2837;2835
284;282
2842;1157
2843;2204
2844;2845
2845;119
2846;119
2847;2849;1050
285;287
2850;1790
2851;1789
2852;1420
2853;1419
2854;1328
2855;1327
2856;2856
2857;2172
2858;2784
2859;1331
2860;2427
2861;2863
2862;284
2863;2865
2864;2862
2865;760
2866;2864
2867;2584;1905
2868;2242
2869;1694
2870;1826
2871;2068
2872;2085
2873;2891
2874;689
2875;2877
2876;2890
2877;2879
2878;2876
2879;2881
289;291
744;217;258
2898;2898
7387;7389
745;2832;696
2899;1715
7386;7525
290;288
7051;7123
291;293
7050;7017
2910;1834
2911;2912
2912;2910
2913;2908
2914;2907;9735;8619;2817
292;290;856
293;295;1599
7052;745;2914;9533;8619;9532;8618
294;292
7055;7072
295;295;294
7054;7069;7072
296;297
7057;7061
297;2847;299;362;118
7056;7048;7779
298;1049;360
7059;7148
299;303;2848
7058;9617
318;463;316
319;814;321
3534;1534
3650;82
38;40
380;381
381;383
382;217
383;385;643
384;653
385;388
386;587;384
387;398
388;391
389;386
39;37
390;389
3901;3903
3902;3901
3903;3905
8888;8870
3904;3902
8889;8890
3905;3907
391;913;393;2496;822
3910;3908
3911;3913
8898;8894
3914;3912
8899;8896;8903
3915;3917
3916;3914
3917;3918
394;392
395;397
396;394
397;772;192
400;331
7818;8003;7952
7739;7741
401;435;454;403
7819;7746
7738;2246
402;400;1754;801
403;373;371;454
404;1993;1987;402
405;407
7247;8468;8345
406;374;377
407;1741;408
408;410;1836
7810;7647
7249;7838;7837;7845
409;406
7811;7658
7248;8346
9327;9305
414;412;1897
9326;9332;9334
415;417;419;421
9325;9398;9623
416;414;412
417;419;421
9333;9327
422;420;416;418
68;66;146
9332;9489
423;425;1152
69;11;115
9335;9489;9327
424;422
9334;9328
425;425
9337;9491;9489
426;428
9336;9329
427;264
432;436
74;72
433;431
75;77
434;844;375
72;4;3;2111
435;434;821
73;52
436;438;907
70;114;68
437;433
71;2113;73
442;444
7539;7541
7203;7204
443;441;2484
7538;7418;7539
7202;7198;7197
7205;7195
9395;9021
444;446
7204;7084
445;443
9397;9139
446;448
7206;7202
9396;9175;9176
447;445
7271;7263;7269;7267
452;391;639
7270;7264;7272;7444;7278
453;1090
7277;7269
454;455;1084
7276;7444
455;457;1116
460;458;1118
7878;7880
7719;7720;7721
461;2262
7879;7877
7718;7697
7263;7269
462;460
463;462
7265;7273
90007;6
464;468
7264;7272
90006;7
465;464
7267;7265
466;1163
7266;7268
467;2224;960;2230
468;470;1321;633
7870;8842
7269;7528
7711;7769
7268;7272
7710;9545
469;465;733
7257;7142
470;472;628;627
7256;7254;7030
471;469;633
7255;7257
472;474
7254;7147
473;471;2384
474;476
7252;7232;7226
475;473
7251;7249;7225;7232
476;2283
7250;7252;7251;7945
7728;7605
477;475
478;104;101
7860;7652
7727;7303
7726;7382
479;2284;2291
48;50
480;483;222
86;87
481;105;1564
87;89
482;2280
7579;7625
84;66
483;485
7578;7544;7422
85;63
484;481
82;193
485;487
83;2542
486;484
80;78
487;489
81;162
488;486
7573;7571
489;224;216
7572;7574
49;47
490;335
7232;7225;7226
491;1132
7231;7252;7251
7749;7745
492;240
7230;7094
7748;7648;7647
493;495;2498;494
494;394;272;1041
495;497;1652;9312
496;494;2498;913;397;822
497;502;1652
7743;7983;7982
498;496
502;504
503;498;496;1261
504;181
505;503;1652
506;508
507;186
512;514
513;511
514;516
515;513
7928;7845;7690;7691
516;518;2344
7429;7340
517;515
7428;7430;7426
522;524
523;521;732;2442
524;526
525;523
526;2443;528;937;1013;1690
527;525
893;895
7609;7607
530;532;702
892;890
7608;7602;7604
531;53;701;710
532;703
533;531
534;176;536;582
535;704;196
536;538
537;535
7601;7596
538;540
7600;7591
539;537
540;2499
541;539
542;174
543;173
544;545
545;545
887;889
7619;7511;7296
546;356
886;884
7618;7295;7510
547;335
889;891
7617;7415
548;1653
888;886
7616;7404;7617
549;550;1093
550;77
551;654;63
552;2860
553;80
554;2279
555;557
556;64;585
557;559
7621;7396
558;556
7620;7299
559;561
562;560
563;449
564;562
565;567
566;438
567;569
572;570
573;575
574;572
575;577
576;574
577;579
580;578
581;238
582;584
583;535;190
584;586;64
585;583
586;555
587;589
588;562;643
589;591;644
7669;7671
590;588
7668;7761;7760
591;593
592;590
593;595
594;592
595;597
596;594
597;599
7661;7665
598;596
7660;7675;7674
599;601
665;2473
666;664
965;2362
680;683
964;2361
681;679
967;1653
682;2249
966;968
683;681;580
961;959
684;688;2250
960;1910;993;995
685;680
963;964
686;2143
962;1929
687;1976
688;690;2873
689;685
953;955
690;692
691;689
951;529
692;694
693;691
957;467
694;2199;2410
956;954;2595
695;693
955;957
696;259;1617
954;2136
697;1326
698;700
699;720
7008;7007;7006;7009
7009;8587;9674
7010;8018
7011;7145;9674
7012;7019
7013;7015
7014;7012
7015;7018
7016;7025
7017;7014
7018;7051
7019;7027
7020;7013
7021;9184
7022;8931
7023;9119
7024;9087;9254
7025;8586
7026;7208
7027;7132;8722
7028;7020
7040;9586;7155
7041;9015;8910
7042;9037
7045;7065
7046;7049
7047;8803
7048;7045
7049;7057
7346;7338
705;1598;168
7060;7056;7148;7031;9617
7061;7031;9617;7200;7148
7062;7073
7063;7094
7065;7046
7067;2566
7068;8560;8631
7137;7999;7256
7069;7081;7082
7070;7055;7072
7071;7054
7072;9618;9617
7073;7075
7074;7063
7075;7077
7076;7074
7077;7108
7122;7050
7078;7076
7123;7902
7079;7172
8999;9013;8996
7091;8705
7092;8704;9681
7093;9676;7016;7178;7216;7656;7062;8540
7094;7655;7093;7094;7178
7095;8062
7096;8086
7331;7317
710;1299
7106;7197;7210;7212
7107;7198;7212;7211
7330;7322
711;530
9763;8719
7112;7182
9762;8395
7113;7111
9765;9717;9712;9603
7114;7116
9764;9603;9712
7115;9565;7146
9767;9413
7116;9683
9766;9414
7117;7115
7333;7323
712;714
9449;9447;9446
7120;7137
9448;9443;9441
7121;7086
7124;9006
7125;7228
7127;8329;8322
7332;7326
713;716
7132;7133
7133;7028
9756;7641
7141;8124
9755;7376
7142;7121
9752;8274
7145;7114
9724;9715;9712;9603;9604
7155;7160
9727;9770;9602
7156;7040;7039
7337;7345
8798;8800
716;718
9770;9372;9726
7163;7167;7168
7164;2552;9622;2551
7167;7159;7164
7336;7342
8799;8801
717;713
7172;7881
7173;7080
7174;7004
7176;8711
7177;8711
8276;8073;8275
7189;9073
7210;7209;7256;7257
7211;7256;7257;7209
7212;7211;7210
7215;7216;7217;7222
7216;7222
7217;7219
7218;7216
7219;7220
7220;7218
7758;7760
7221;7215;7216;9649
7759;7763;7765;8238
7222;7224
7223;7221
7224;7087;7082
7225;7087;7231;7081
7226;7087;7081;7946
7227;7118
7228;8541;7094
7750;7744
931;929
7477;7483
728;2125;928
9310;9476
8591;9480;8599
7280;7274
7281;7283
7282;7575
9313;496;9312
8592;8667;9480;8599
7283;7285
7284;7282
7285;7286
7286;7284
7287;7469
8599;8600;8592
7288;7290
7289;7287
729;727
7827;7818;7644
7290;7296
7826;7644;7848;7643
7291;7295
7292;7294
7293;7291
9304;9326
7823;7859
7294;7439
9305;1479
7822;7833;7953
7295;7434;7618;7289
7821;7870
7296;7522;7441;7292;7619;7435;7511;7592
7820;7830
7297;7497;7400
7298;7462
7299;7301
7351;7512;7570
7449;7558;7559;7450;9386
730;1028
731;2126
7909;2030
7350;7724;7354;7351;9540;7575;7352
7448;7571
7353;7723;7351;9271;7349
732;734
7320;7328
7321;7327
7322;7324
7323;7321
7352;7354;7512;7349;7351
733;2387
7355;7383
734;736
7354;9755;7374;7423
735;521;520
737;735
7356;7448
736;738;876
7357;9477
739;737;1386;876
7901;9198
7358;7360
7440;7425;7296;7424
738;941;1265;740
7900;8824
7359;7362;7357
7441;7516;7517;7433
7917;7920
936;912
7368;7363;7369
7470;7288
7916;7925;7919
937;937
7369;7363
7471;7490;7495
759;2866;761
7961;7957
922;920
7378;7519;7371
7460;7452
758;280
7960;7975
923;924
7379;7373
7461;7297;7501
743;65;85;841
8749;8744
7380;7423
742;2287;1215
8748;8753
7381;7725;7382
741;739
7382;7549;7423
740;877
7383;7445;7443
7903;7122
7442;7350
7902;7882
7443;7271;7275
7905;7806;7735
7444;7446;7384
7904;7921;7922
7445;7443
7907;7919
7446;7384
7906;7735
7447;7355
7963;7956
920;918
7462;7454
7962;7959
921;923
7463;7606
8759;8769
7967;7961
924;922
7466;7452;7468
7966;9724
925;1216
7467;7451;7455;7453;7463;7465;7611
934;2353;933;1008
7472;7484;7495;7490
7480;8512;8111
7481;7489
7482;7484
7483;7481;7471
7484;7478;9515
7489;7472
7490;7482
7491;7492;7496
7492;7496
7493;7449
7494;7613;7449
7495;7491
7496;7471;7472
7497;7589
7498;7298
7499;7503
7522;7295
7524;7385
7525;7533
7526;7532
7527;7531
7528;7530
7529;7270
93;90
7540;7538
92;94
7541;7537
91;253
7542;7536
90;88
7543;7460
97;95
7544;7422
96;98
7545;7579
95;93
7546;7550
94;96
7547;7555
7548;7381
7549;7423
7550;7552
7551;7547;7592
7552;7553;7591
7553;7551
7554;7546
7555;7392
7556;7614
7557;7417
7558;7560;7450
7559;7450;7561
7560;7562;7558
7561;7559;7563
7562;7567;7560
7563;7561;7568
7564;7391
7565;7511
7567;7562;7391;7568
7568;7392;7563
7570;7447;7572;7383
7571;7352;7513
89;92
7574;7281;7575;7349
88;108
7575;7573;7634
898;896
7602;7604
899;901
7603;7609
7604;7727
7605;7603
7606;7608
7607;7464
7610;7442
7611;7610
7612;7493;7494
7613;7535
7614;7414
7615;7557
7622;7422;7624
7623;7466
7624;7578;7422
7625;7623;7466
7626;7633
7633;7574;9756;7634
7634;9756
7636;7640
7637;7639
7638;7636
7639;7683
7640;7626
7641;7637
7643;7827;7848
7644;7684;7685;7827
7645;7962
7646;7978
7647;7811;7766
7648;7811
7649;7673
7650;7656;7673
7651;7655;7653;7756;7858;7856;7866
7652;7756;7656
7653;7804
7654;7652
7655;7651;9566;7657;7918;7649;7650;7692;7655;7656
7656;7655;7652
7657;7810
7658;9567;7656;9541
7659;7661;7675
7662;7660
7663;7666;7669
7664;7666
7665;7663;7664
7666;7662
7667;7673;7760
7670;7664;7663
7671;9729;8018;7732
7672;7732;9547;9729;7670
7673;7659
7674;7668;7650;7667
7675;7708
7678;7682
7679;7688
7682;7638
7683;7921;7679
7684;7690;7643
7685;7690;7688;7849;7687
7687;7678;7849;7685;7684
7688;7678;7849
7690;7927;7685;7684;7847;7851
7691;7684;7685
7692;7702
7693;7656
7694;7696;7699
7695;7703
7696;7717
7697;7695
7698;7695
7699;7701
7843;7841;7250
7700;7698
7842;7844
7701;7704
7841;7873;7874
7702;7694
7703;7693
7847;7845
7704;7700;7709
7846;7928;7838;7851;7927
7705;7700
7845;7837;7928;7843
7706;7706
7708;7705;7704
7709;7797
7873;7839
7712;7836
7872;7860
7713;7706
7714;7722
7874;7842;7839
7715;8010
7877;7941
7716;7794
7717;7795
7867;7034
7720;8011
7866;7867
7721;7713
7865;8099
7722;7720
7864;7865
7723;7349
7724;7354
7862;7855;7652
7725;7349
7813;7763
7732;9546;7798;8018;9547
7812;7764;8238;7763
7733;8018;7671;7672;7010;8012
7815;9523;7768
7734;9691;7905;7906
7814;9524;1688;9632
7735;7789
7741;8027
7744;8554
7745;8556;7751
7746;7754
7747;7820;7832
7751;7753
7752;7750
7753;7755
7754;7752
7755;7747
7756;7931;7828;7829;7857
7757;7652;7651
7760;7667;7759
7761;7759
7762;7812
7763;7768;7767
7764;7758
7765;7813
7766;7767
7767;7816;7762;7748;7814
7768;7748;7816
7769;7788
7851;7845;7690;7691
7770;7712
7858;7856
7779;7057
7782;8012;8019
7783;8012;8019
7788;7734
7789;7770
7793;7715
7794;7796
7795;7793
7796;7718
7797;7659
7798;7835
7799;7733
7800;7980
7801;7803
7802;7800
7803;2699;7804
7804;7802;7963;2698
7806;7971
7807;7906
7808;7969
7809;7942
7816;7814;2824
7817;7826;7827
7828;8002
7829;7932;7757;8002
7830;7821
7831;7819
7832;7834
7833;8843;7819
7834;7823
7835;7711
7836;7798;7799
7837;7250;7846
7838;7845;7846;7250
7839;7874;7852;7933
7844;7846
7848;7684;7688;7687
7849;7827;7644
7852;7874
7853;7853;7862
7855;7652;7867
7856;7853
7857;7822
7859;7757
8455;8528
7887;7888
7888;7897
7889;7894
7890;7893
7892;7889
7893;7035
8448;8121
7896;7887
8449;8435
7897;7884
7949;7951
810;1222;813
7950;7954
7951;7817
7952;7950
7953;7949
7954;7823
7955;7646
7970;7809
7971;7994
7972;7807
809;807
7973;9416
808;810
7974;9689
7975;7958
7989;9741;7991
850;848
8326;8313;8312
7990;7993
8327;8259
7991;9741;7990
8322;8325
7994;7992;9757
8323;8314;8313
7995;7972
8309;8276
8;70;115
8018;8012
8019;7732;7733;7672;7671
8029;8120
8030;8216
8031;8033
8032;8139
8033;8500
8034;8032
8035;9785
8037;8064
8038;8204
8039;8096
8049;8086;8081
8050;8163
8052;8058;8365
8053;8460;8512
8056;8467;8187;8436
8057;8344;8390;9591
8058;8359
8059;8053
806;808
8060;8061;8123
8061;8123
8062;7096
8064;8065
8065;8038
807;805;2507
8079;8126
8108;8110
811;809
8110;8112
8111;8512
8112;8113
8113;8023
8114;8334
8115;8334;8250
8120;8449;8255
8121;8030
8122;8060
8123;8311
8124;7127;8125
8125;7127
8126;9780
8127;8080
8128;8269;8281;8280
8129;8371
8138;8269
8139;8119
814;812
8140;8196;8496
8141;8095
8145;8369
8146;8474
8149;8150
815;1728
816;814
817;816
8179;8420
9708;8910;8911
8192;8489
9709;1960
8193;8186
8194;8481
8195;8443
8196;8185
8197;8141
8198;8168
8691;9647
820;707
8208;9623
8510;8513
821;387
8210;8328
8508;8517;8228
8211;8203;8347
8509;8424
8212;8204;8348
8213;8399
8216;7480
8217;8495
822;1726;1219;9512;9513
8228;8507
8229;8092
8692;8620
823;825
8238;7758;7812
8239;8419
824;391
8240;8182
8241;8242
8242;8490
8244;8499
8245;8515;8390
8246;8390;8516;9591
8249;8115;8114
825;828
8258;8077
8540;7227;7079;7094
8259;8286
8541;7094
826;824
8268;8249;9750;8128
8269;8504;8507;8505;9750
827;826
8270;8169;8168
8271;8277;8272
8272;8372
8273;8233
8277;8298
828;232
829;827;3629
8296;8349
8297;8256
830;832
8308;7257
831;229
8318;8377;8480
8319;8330;8373
832;100;2256
869;871
8320;8376;8373
868;866
8321;8104;8305;8106
833;831
853;855
8338;8487;8488;8357;8368
834;620
8340;8503;8505
8341;8332
8342;9050
8343;8368;8390;8056;8444;8184;8502;8104;8145
8344;9208;8343
8345;9360;7247;8118;8083;8418;8468
8346;9361;8468;7247;8499;9591
8347;8211;8465
8348;8212;8462
8349;8076
8631;8634;8633
835;478
836;351
837;78;350
8370;8146
8371;8271
8372;8130
8373;8319;8318;8317
8375;8494
8376;8317;8318
8377;8307;8305
838;840
8388;8457
8389;8232
839;837
8398;8299
8399;8094
8410;8326;8408;8407
8708;8714
8411;8408;8407;8326;8207
8709;8713
8412;8203
8413;9156
8414;8181
8415;8656
8416;8260
8417;8189
8418;8205
8419;8346
8420;8160;8422
8421;8423
8422;9024;8179
8423;8180
8424;8430;9591
8425;9591
8426;8157;8468
8428;8482
8429;9591
8458;8389
8459;8052
8768;9736;8826;8769;1960
8470;8079;8089
8769;8765;8763
8471;8089;8261;8079
8472;8459
8473;8529
8476;8089
8477;8066;8068;8047
8875;9061
8488;8368;9209
8874;8881
8489;8241
8490;8193
8491;8492
8849;8987;8413;8852;9147;8851
8492;8441
8848;8876;8865
8493;8342
8494;8234
8495;8091
8496;8229
8497;8141
8843;7830
8498;8345
8842;7831
8499;8431;8469
851;859
8511;9783
8512;8344;9209
8513;8511;9365;8514
8514;8511
8515;8356;8245
852;850
8523;8408;8523
8524;9782
8525;8090
8526;8377
8527;8518
8528;8502
8529;8456
8530;8532
8531;8447
8532;9752
8533;8531
8534;8440
8535;8041
8536;8042
8537;8445
8559;2568;2567
856;854;910;1597;1598
857;861
8577;8722;8721;8579
8580;8603;8581
8581;8579;8577
8584;8609
9366;8514
8585;8679
9365;9410
8586;7008;7011
9364;9758
8587;7026
8632;2567;8608;7067;8633
8633;8621;8653
8634;8632
8678;8584
8679;7007
8703;7091
8704;9684;9683
8705;8715
8706;7092
876;874
877;879
878;741
879;881
880;878
8800;8802
8801;9001
8802;9002
8803;8826
8804;7047
8805;8858
8806;8810
8807;8819
8808;8812
8809;8866;8817
881;883
8810;8811
8811;8807
8812;8818
8813;8809
8814;8816
8815;9111
8816;8808
8817;8815
8818;8806
8819;8813
882;880
8820;9188;9199
8821;9187
8822;9003
8823;8731
8824;9210
8825;9205;7901
8826;9220
8827;8769;8804
8828;8937;8951
8829;8952
883;885
8830;8950
8832;9045
8833;9176
8834;9052;8907;8908
8835;8908;8920
8836;8837;8839;8838
8837;8839
8838;8836;9135
8839;9135;8836
884;882
8840;8845;8838;8844
8841;8845
8844;8840;8736
8845;8737;8840
8846;8851;8852
8847;9063;9062;8766
885;887
8850;9093
8851;9233;8413;9234
8852;8849;9234
8853;9052;9103;8907
8854;8972;8971
8855;8972
8856;9131
8857;8821
8858;8857;8821
8859;9263;9020
8860;8861;9260;9259
8861;9260
8869;8885;9020;8918
8870;8919;8918
8871;8986
8872;8873;9087;9248
8873;8847;8862;9062
8880;8884
8881;8886
8882;8875
8883;8879
8886;8877
8887;8882
8890;8892
8891;8892;8889
8892;8897
8893;8905
8895;8899
8896;8891
8897;8900
890;888;2146
8900;8904
8901;9160;9060
8902;9044;9060
8903;8900
8904;8898;8906
8905;8895
891;893
8910;8759;9709
8911;9709;7042
8914;9206;7900
8915;9165
8916;9218
8917;8779
8918;9068;8869;9067
8919;9068
8920;8893
8921;9212
8922;8921
8923;8834
8924;8925
8925;9133
8926;9132
8927;8781
8930;7021
8931;8975
8933;8934
8934;9185
8935;9255;8805;9199;9110
8936;9256
8937;9067;8828
8938;7021
8939;8778;8775;9081;8854;9082
894;892;2889
8940;8855;8916
8941;9038
8942;9128
8943;9128
8944;9112
8945;9079
8946;9195;9017
8947;9086;9181;9180
895;897
8950;9089
8951;9199;8828
8952;9201
8957;8964;8965;8967
8958;8968;8963
8959;8963;8964
896;894
8960;9427
8961;8965;8962;8966
8962;9044
8963;9162;8959;8960
8964;8959;8957;9163
8965;8967;8902;8962
8966;8968;8958;8902
8967;8957;8965
8968;8958;8966
8969;9060;8966
897;898
8970;9044
8971;9249
8972;9216;8871;9087
8974;8930
8975;9079;9077
8977;8796
8978;9049
8980;9127
8981;9126
8984;9120;9118;9114
8985;9203
8986;8846;9147;9146
8987;8872
8990;8993
8991;8999;8995;8998
8993;8999;8998
8994;8990
8995;9315;8991
8996;8997;9214
8997;8999
8998;8996
9;90007;7
9001;9048
9002;9048
9003;7002
9004;8823
9005;7189
9006;9010
9009;9005
9010;9109;7003
9011;9114
9012;9114
9013;8991
9014;8750
9015;9016
9540;9271
9038;9040
9541;7656
9039;8942;8943
9040;9036
9041;9039
9042;9186
9043;8969;8961;8901
9044;9058
9045;9166
9046;8833
9047;8833
9048;8977;9049
9531;391
9049;8794;8795
9520;1675
9058;8774
9068;9179
9071;9138
9072;9085
9073;9075
9074;7124
9075;9076;9074
9076;9074
9077;9119;8974;8944
9079;9122
908;437
9081;9246;9150;9087
9082;9150;9193
9083;9193
9084;9071
9085;9130
9086;8873;7023;8871;9106;8939;9248;9253;9081
9087;9086;8837;9542;8890;9087
9089;9042
909;855
9090;8939;9253
9091;9134;9101
9092;9101;9134
9093;9097
9094;8853
9095;9134
9097;9094
910;2730;908
9610;9718
9108;9009
9109;9236
911;2370;932
912;2248;934
9120;9224;8798;8799
9122;7024
9123;8743
9124;8743;9123
9125;8980
913;936;822
914;915;1009;9545;1011
9148;9091
915;917;1009
9648;9357;8618;8692
9150;9250
9649;9555
9151;9035;9033;9031
9152;9035;9030;9034
9156;9146
9157;8849
9158;9168
9159;9172
9160;8962;9162
9161;9163;8901
9162;9160;8963
9163;9161;8964
9164;9182;8914
9165;8864
9166;9171
9167;9047
9168;9237
9671;9478
9169;9159
9170;9174
9171;9170;9158
9172;9167
9174;9046
9175;8832
9176;9397;8832
9661;9371
9179;8829
9180;8946;9199;8409
9181;9201
9182;8914
9183;8936
9184;8933
9185;7022
9186;8856
9187;8820
9188;8808
9189;9191;9268
9190;9215
9191;9192
9192;9190
9193;9087
9195;9197
9196;8947
9197;9204;7900
9198;9196
9199;9180;8935;8951;8936
9200;9169
9201;8936
9202;8984;9120
9203;9205;8947;9207
9204;9202
9205;8915;9198
9206;9202
9207;8915
9208;8502;8366;8336;8523
9209;9208;8343
9210;9026
9211;8825
9212;9235;8756;8922
9213;8922;8757
9214;9189
9215;8997
9216;8848
9218;8782
9219;8917
9220;9125
9221;8827
9223;9227
9226;9227;9270
9227;9229
9230;9231
9231;9232
9232;9223
9233;8756;8851;9028;8757
9236;9213;8921
9237;9239
9240;9200
9241;9238
9243;9183
9246;9250;9081
9247;9082;9083
9250;9255;8938;9246
9251;9247;8931
9253;7023
9254;9087;8940
9255;8935;9250
9256;9251
9257;9259;8888
9258;8888;9260
9259;8860;9257
9260;9258;8860
9261;9240
9263;9395;9245;8859
9264;9021;9395
9265;7973
9267;9418
9268;7350;7588;9516;7349;7354
9269;7040
9270;9230
9271;7359;8013
930;2115
9308;9706;8620
9311;9349
9312;7906;1035;914;8016
9314;8994
9315;8878
932;963
933;1730
9340;9491;9695;9694
935;2275
9352;7814;9545;9557
9353;2824
9356;9647
9357;8620
9360;9663;8345;9662
9361;8345;8346;8244;9662
9372;9382
9377;2914
938;865
9380;9378
9381;9387;2818
9382;9379
9386;7511
9387;9377
9388;9380
9389;9624
939;938
940;939
9405;9413
9406;9720;9722;9716
9407;9412
9408;9415
9409;9408
941;2124;943
9410;9648
9411;9366
9412;9766
9413;9406;9722;9716
9414;9409
9415;9767
9416;9417
9417;7974
9418;7585
9419;9629
942;1386;739
9420;9625
9421;7586
9425;8223
9426;8959
9427;9364
943;1640
9430;1668
9431;960
944;942
9441;9449;9442
9442;9449
9443;9449
9444;9449
9446;9452;9453
9447;9453;9448
9450;9453;9452
9451;9714
9452;9447;9451
9453;9451;9447;9454
9454;9713
9476;7358
9477;9311
9478;8599
9479;9672
9480;9671
9481;8592
9482;9605
9483;9484
9484;9487;9485
9485;9482
9487;9607
9488;9483;9484
9489;9339;9340
9491;9334;9333
9495;9496;9564
9496;2394;9564
9500;9505;9504
9501;9695;9694
9502;9500;9507;9506
9503;9340;9491;9506;9339
9504;9608
9505;9768;9607;9608
9506;9501;9505
9507;9505
9512;9513;706
9513;706;495;7052;7420;9512;9651
9514;7483
9515;7584
9516;7349
9523;7768
9524;9633
9525;7815;1688;2823
9532;9533
9533;8721;391;9648;8722
9534;8620
9535;9648
9536;9537
9537;7480
9545;7733;7672
9546;2824;9353;725
9547;9353;2824;9352
9554;9556
9555;9554
9556;9650
9557;9728;7010;7733
9563;9495;9496
9564;9548
9565;7011;7008
9566;7657
9567;9541
958;956;996
9586;9587;7040
9587;7039
959;958;2229
9591;8044;8344;8056;8245;8246;8043
9602;9726;9372
9603;9713;9725
9604;9724;9725;9764;9714
9605;9609;9610
9606;9607
9607;9503;9605;9488
9617;7071;7061
9621;7163
9622;7185;7183;2518
9623;9390
9624;9325
9625;9265
9626;9421
9629;7899
9632;9525;1012
9633;1698;7815;1693
9634;7450
9647;9648;9534
9650;7215
9651;706;7052
9662;9361;8722;8721;8619
9663;9360;8722;9533;8327;9361
9664;2061
9665;9331
9672;9481
9673;7008
9674;7005
9676;8709
968;970;1125
9681;8712
9682;7091;7117
9683;8703;7091;8712
9684;7117;8712;8703
9689;9626
969;967
9691;7898
9692;7735
9694;9502;9337
9695;9337;9502
970;974;1003;914
9706;1601
971;969;2496
9712;9723
9713;9603;9450
9714;9604;9450
9715;9721;9412
9716;9725;9765
9717;9609
9718;9724;9764
9719;9407
972;973
9720;9722
9721;9719;9407
9722;9716
9723;2817;9735
9725;9717;9603;9715
9726;9549
9729;9547
973;1083
9734;2914;1564
9735;1564;7965;9695;9408;9442;2914;9735;2817
974;976
9741;7990;7991
975;971
9753;8533
9754;7353
9757;8105
9758;7995
9771;8579;8580;8721;8551
9780;8155
9781;8127
9782;8510
9783;8525
9784;8035
9785;8177;8176
98;100
99;97;91
